<svg xmlns="http://www.w3.org/2000/svg" xmlns:xlink="http://www.w3.org/1999/xlink" width="29.44" height="26.529" viewBox="0 0 29.44 26.529">
  <defs>
    <clipPath id="clip-path">
      <rect width="29.44" height="26.529" fill="none"/>
    </clipPath>
  </defs>
  <g id="add-projector" clip-path="url(#clip-path)">
    <g id="Group_36" data-name="Group 36" transform="translate(-569.295 -252.989)">
      <g id="Group_28" data-name="Group 28" transform="translate(577.295 267.575)">
        <path id="Path_422" data-name="Path 422" d="M596.046,280.623h-16.06a2.693,2.693,0,0,1-2.691-2.69v-6.565a2.693,2.693,0,0,1,2.691-2.689h4.725a.865.865,0,0,1,0,1.729h-4.725a.962.962,0,0,0-.961.96v6.565a.962.962,0,0,0,.961.961h16.06a.961.961,0,0,0,.96-.961v-6.565a.961.961,0,0,0-.96-.96.865.865,0,0,1,0-1.729,2.692,2.692,0,0,1,2.689,2.689v6.565A2.693,2.693,0,0,1,596.046,280.623Z" transform="translate(-577.295 -268.68)" fill="#0879f6"/>
      </g>
      <g id="Group_29" data-name="Group 29" transform="translate(586.475 265.153)">
        <path id="Path_423" data-name="Path 423" d="M591.835,273.723a3.922,3.922,0,1,1,3.922-3.922A3.926,3.926,0,0,1,591.835,273.723Zm0-6.114a2.193,2.193,0,1,0,2.193,2.193A2.2,2.2,0,0,0,591.835,267.608Z" transform="translate(-587.913 -265.879)" fill="#0879f6"/>
      </g>
      <g id="Group_30" data-name="Group 30" transform="translate(589.18 267.869)">
        <circle id="Ellipse_31" data-name="Ellipse 31" cx="1.259" cy="1.259" r="1.259" transform="translate(0 0)" fill="#0879f6"/>
      </g>
      <g id="Group_31" data-name="Group 31" transform="translate(589.762 260.518)">
        <path id="Path_424" data-name="Path 424" d="M592.58,263.937a.864.864,0,0,1-.865-.865v-1.69a.865.865,0,1,1,1.729,0v1.69A.864.864,0,0,1,592.58,263.937Z" transform="translate(-591.715 -260.518)" fill="#0879f6"/>
      </g>
      <g id="Group_32" data-name="Group 32" transform="translate(592.862 262.138)">
        <path id="Path_425" data-name="Path 425" d="M596.166,265.316a.865.865,0,0,1-.611-1.477l1.2-1.195a.865.865,0,0,1,1.223,1.223l-1.2,1.195A.862.862,0,0,1,596.166,265.316Z" transform="translate(-595.301 -262.392)" fill="#0879f6"/>
      </g>
      <g id="Group_33" data-name="Group 33" transform="translate(585.328 261.929)">
        <path id="Path_426" data-name="Path 426" d="M588.646,265.074a.862.862,0,0,1-.611-.253l-1.2-1.195a.864.864,0,0,1,1.223-1.223l1.2,1.195a.865.865,0,0,1-.611,1.476Z" transform="translate(-586.587 -262.15)" fill="#0879f6"/>
      </g>
      <g id="Group_34" data-name="Group 34" transform="translate(580.421 270.913)">
        <path id="Path_427" data-name="Path 427" d="M581.776,278.214a.864.864,0,0,1-.865-.865v-3.943a.865.865,0,1,1,1.729,0v3.943A.865.865,0,0,1,581.776,278.214Z" transform="translate(-580.911 -272.541)" fill="#0879f6"/>
      </g>
      <g id="Group_35" data-name="Group 35" transform="translate(583.237 270.913)">
        <path id="Path_428" data-name="Path 428" d="M585.033,278.214a.865.865,0,0,1-.865-.865v-3.943a.865.865,0,1,1,1.729,0v3.943A.864.864,0,0,1,585.033,278.214Z" transform="translate(-584.168 -272.541)" fill="#0879f6"/>
      </g>
    </g>
    <g id="Group_154" data-name="Group 154">
      <rect id="Rectangle_401" data-name="Rectangle 401" width="2.489" height="9.955" rx="1.244" transform="translate(3.733)" fill="#0879f6"/>
      <rect id="Rectangle_402" data-name="Rectangle 402" width="2.489" height="9.955" rx="1.244" transform="translate(9.955 3.733) rotate(90)" fill="#0879f6"/>
    </g>
  </g>
</svg>
