<svg xmlns="http://www.w3.org/2000/svg" xmlns:xlink="http://www.w3.org/1999/xlink" width="22.361" height="22.361" viewBox="0 0 22.361 22.361">
  <defs>
    <clipPath id="clip-path">
      <rect width="22.361" height="22.361" fill="none"/>
    </clipPath>
  </defs>
  <g id="settings" clip-path="url(#clip-path)">
    <g id="Group_76" data-name="Group 76" transform="translate(-491.565 -251.284)">
      <path id="Path_451" data-name="Path 451" d="M502.745,273.645a2.837,2.837,0,0,1-2.834-2.834v-1.5l-1.062,1.063a2.835,2.835,0,0,1-4.009-4.01L495.9,265.3h-1.5a2.835,2.835,0,1,1,0-5.669h1.5l-1.063-1.062a2.835,2.835,0,0,1,4.009-4.01l1.062,1.063v-1.5a2.834,2.834,0,1,1,5.669,0v1.5l1.063-1.062a2.835,2.835,0,0,1,4.009,4.009l-1.063,1.062h1.5a2.835,2.835,0,0,1,0,5.669h-1.5l1.062,1.062a2.835,2.835,0,1,1-4.009,4.009l-1.063-1.062v1.5A2.837,2.837,0,0,1,502.745,273.645Zm-3.142-6.857.654.348a5.273,5.273,0,0,0,.946.392l.708.216v3.067a.834.834,0,0,0,1.669,0v-3.067l.709-.216a5.272,5.272,0,0,0,.946-.392l.654-.348,2.168,2.168a.835.835,0,0,0,1.181-1.18l-2.168-2.168.347-.654a5.266,5.266,0,0,0,.392-.945l.216-.71h3.067a.835.835,0,0,0,0-1.669h-3.067l-.216-.709a5.244,5.244,0,0,0-.392-.946l-.347-.653,2.168-2.169a.84.84,0,0,0,0-1.18.836.836,0,0,0-1.181,0l-2.168,2.169-.654-.349a5.31,5.31,0,0,0-.945-.392l-.71-.215v-3.067a.834.834,0,1,0-1.669,0v3.067l-.709.215a5.311,5.311,0,0,0-.945.392l-.654.349-2.168-2.169a.833.833,0,0,0-1.423.59.827.827,0,0,0,.242.59l2.168,2.169-.347.653a5.172,5.172,0,0,0-.392.946l-.216.709H494.4a.835.835,0,1,0,0,1.669h3.067l.216.71a5.193,5.193,0,0,0,.392.945l.347.654-2.168,2.168a.835.835,0,1,0,1.181,1.18Z" fill="#838383"/>
    </g>
    <g id="Group_77" data-name="Group 77" transform="translate(-491.565 -251.284)">
      <path id="Path_452" data-name="Path 452" d="M502.871,265.884a3.606,3.606,0,1,1,3.607-3.607A3.61,3.61,0,0,1,502.871,265.884Zm0-5.212a1.606,1.606,0,1,0,1.607,1.605A1.607,1.607,0,0,0,502.871,260.672Z" fill="#838383"/>
    </g>
  </g>
</svg>
